sofca@DESKTOP-S61VUQB:/mnt/c/Users/sofca/source/repos/EcoTrack$ curl -sS -w "\nHTTP_STATUS:%{http_code}\n" \
>   "https://ecotrack-3ggh.onrender.com/api/zones?page=1&pageSize=5"
{"zones":[{"id":"cce35f2c-25de-4a45-851b-a99e5d651fcb","name":"Paris 10e - Entrepot","code":"ZONE-PARIS-10","description":"Operational collection zone for Canal Saint-Martin, Gare de l Est, and Saint-Vincent-de-Paul.","depotLabel":"Depot Paris 10e - Entrepot","depotLatitude":"48.877730","depotLongitude":"2.365295","isActive":true,"createdAt":"2026-05-09T18:04:38.224Z","updatedAt":"2026-05-09T18:04:38.224Z"},{"id":"b4194ecb-89a6-47d2-ba7f-b8784b0c3461","name":"Paris 11e - Popincourt","code":"ZONE-PARIS-11","description":"Operational collection zone for Republique eastbound, Bastille north, and Menilmontant gateway streets.","depotLabel":"Depot Paris 11e - Popincourt","depotLatitude":"48.864805","depotLongitude":"2.379546","isActive":true,"createdAt":"2026-05-09T18:04:38.224Z","updatedAt":"2026-05-09T18:04:38.224Z"},{"id":"5197bc83-3756-48e2-82dc-9ace7c1b819b","name":"Paris 12e - Reuilly","code":"ZONE-PARIS-12","description":"Operational collection zone for Picpus, Bercy, and Daumesnil corridors.","depotLabel":"Depot Paris 12e - Reuilly","depotLatitude":"48.841977","depotLongitude":"2.398608","isActive":true,"createdAt":"2026-05-09T18:04:38.224Z","updatedAt":"2026-05-09T18:04:38.224Z"},{"id":"8d9c9640-f345-4ed6-bb57-8ce273ceaa50","name":"Paris 13e - Gobelins","code":"ZONE-PARIS-13","description":"Operational collection zone for Gobelins, Butte-aux-Cailles, and Avenue de France.","depotLabel":"Depot Paris 13e - Gobelins","depotLatitude":"48.823809","depotLongitude":"2.359219","isActive":true,"createdAt":"2026-05-09T18:04:38.224Z","updatedAt":"2026-05-09T18:04:38.224Z"},{"id":"3c82bab7-8053-47b6-bb8d-7bcc6d8627a7","name":"Paris 14e - Observatoire","code":"ZONE-PARIS-14","description":"Operational collection zone for Montparnasse south, Denfert-Rochereau, and Alesia.","depotLabel":"Depot Paris 14e - Observatoire","depotLatitude":"48.830181","depotLongitude":"2.328160","isActive":true,"createdAt":"2026-05-09T18:04:38.224Z","updatedAt":"2026-05-09T18:04:38.224Z"}],"pagination":{"total":20,"page":1,"pageSize":5,"hasNext":true}}
HTTP_STATUS:200